{
	"info": {
		"_postman_id": "ecda51b8-c4be-481d-885c-cedef1fa9300",
		"name": "postsAPI",
		"schema": "https://schema.getpostman.com/json/collection/v2.1.0/collection.json"
	},
	"item": [
		{
			"name": "get posts",
			"event": [
				{
					"listen": "test",
					"script": {
						"exec": [
							"pm.test(\"Status code is 200\", function () {",
							"    pm.response.to.have.status(200);",
							"});"
						],
						"type": "text/javascript"
					}
				}
			],
			"request": {
				"method": "GET",
				"header": [],
				"url": {
					"raw": "{{baseUrl}}/posts",
					"host": [
						"{{baseUrl}}"
					],
					"path": [
						"posts"
					]
				}
			},
			"response": []
		},
		{
			"name": "get post 1",
			"event": [
				{
					"listen": "test",
					"script": {
						"exec": [
							"pm.test(\"Status code is 200\", function () {",
							"    pm.response.to.have.status(200);",
							"});",
							"pm.test(\"Your test name\", function () {",
							"    var jsonData = pm.response.json();",
							"    pm.expect(jsonData.userId).to.eql(1);",
							"});"
						],
						"type": "text/javascript"
					}
				}
			],
			"request": {
				"method": "GET",
				"header": [],
				"url": {
					"raw": "{{baseUrl}}/posts/1",
					"host": [
						"{{baseUrl}}"
					],
					"path": [
						"posts",
						"1"
					]
				}
			},
			"response": []
		},
		{
			"name": "get post 1 comments",
			"event": [
				{
					"listen": "test",
					"script": {
						"exec": [
							"pm.test(\"Status code is 200\", function () {",
							"    pm.response.to.have.status(200);",
							"});",
							"pm.test(\"Your test name\", function () {",
							"    var jsonData = pm.response.json();",
							"    pm.expect(jsonData[0].name).to.eql(\"id labore ex et quam laborum\");",
							"});",
							"pm.test(\"Status code name has string\", function () {",
							"    pm.response.to.have.status(\"OK\");",
							"});",
							""
						],
						"type": "text/javascript"
					}
				}
			],
			"request": {
				"method": "GET",
				"header": [],
				"url": {
					"raw": "{{baseUrl}}/posts/1/comments",
					"host": [
						"{{baseUrl}}"
					],
					"path": [
						"posts",
						"1",
						"comments"
					]
				}
			},
			"response": []
		},
		{
			"name": "post",
			"event": [
				{
					"listen": "test",
					"script": {
						"exec": [
							"pm.test(\"Status code is 200\", function () {",
							"    pm.response.to.have.status(201);",
							"});",
							"",
							"",
							"pm.test(\"Status code name has string\", function () {",
							"    pm.response.to.have.status(\"Created\");",
							"});",
							"",
							""
						],
						"type": "text/javascript"
					}
				}
			],
			"request": {
				"method": "POST",
				"header": [],
				"body": {
					"mode": "raw",
					"raw": "{\n    \"title\": \"new post\",\n    \"body\": \"hello postman\"\n}",
					"options": {
						"raw": {
							"language": "json"
						}
					}
				},
				"url": {
					"raw": "{{baseUrl}}/posts",
					"host": [
						"{{baseUrl}}"
					],
					"path": [
						"posts"
					],
					"query": [
						{
							"key": "postId",
							"value": "1",
							"disabled": true
						}
					]
				}
			},
			"response": []
		},
		{
			"name": "put",
			"event": [
				{
					"listen": "test",
					"script": {
						"exec": [
							"pm.test(\"Status code is 200\", function () {",
							"    pm.response.to.have.status(200);",
							"});",
							"",
							"",
							"pm.test(\"Status code name has string\", function () {",
							"    pm.response.to.have.status(\"OK\");",
							"});",
							"",
							""
						],
						"type": "text/javascript"
					}
				}
			],
			"request": {
				"method": "PUT",
				"header": [],
				"body": {
					"mode": "raw",
					"raw": "{\n   \"title\": \"put post\"\n}",
					"options": {
						"raw": {
							"language": "json"
						}
					}
				},
				"url": {
					"raw": "{{baseUrl}}/posts/1",
					"host": [
						"{{baseUrl}}"
					],
					"path": [
						"posts",
						"1"
					],
					"query": [
						{
							"key": "postId",
							"value": "1",
							"disabled": true
						}
					]
				}
			},
			"response": []
		},
		{
			"name": "patch",
			"event": [
				{
					"listen": "test",
					"script": {
						"exec": [
							"pm.test(\"Status code is 200\", function () {",
							"    pm.response.to.have.status(200);",
							"});",
							"",
							"",
							"pm.test(\"Status code name has string\", function () {",
							"    pm.response.to.have.status(\"OK\");",
							"});",
							"",
							""
						],
						"type": "text/javascript"
					}
				}
			],
			"request": {
				"method": "PATCH",
				"header": [],
				"body": {
					"mode": "raw",
					"raw": "{\n   \"title\": \"my new  post\"\n}",
					"options": {
						"raw": {
							"language": "json"
						}
					}
				},
				"url": {
					"raw": "{{baseUrl}}/posts/1",
					"host": [
						"{{baseUrl}}"
					],
					"path": [
						"posts",
						"1"
					],
					"query": [
						{
							"key": "postId",
							"value": "1",
							"disabled": true
						}
					]
				}
			},
			"response": []
		},
		{
			"name": "delete",
			"event": [
				{
					"listen": "test",
					"script": {
						"exec": [
							"pm.test(\"Status code is 200\", function () {",
							"    pm.response.to.have.status(200);",
							"});",
							"",
							"",
							"pm.test(\"Status code name has string\", function () {",
							"    pm.response.to.have.status(\"OK\");",
							"});",
							"",
							""
						],
						"type": "text/javascript"
					}
				}
			],
			"request": {
				"method": "DELETE",
				"header": [],
				"body": {
					"mode": "raw",
					"raw": "{\n   \"title\": \"my new  post\"\n}",
					"options": {
						"raw": {
							"language": "json"
						}
					}
				},
				"url": {
					"raw": "{{baseUrl}}/posts/101",
					"host": [
						"{{baseUrl}}"
					],
					"path": [
						"posts",
						"101"
					],
					"query": [
						{
							"key": "postId",
							"value": "1",
							"disabled": true
						}
					]
				}
			},
			"response": []
		}
	],
	"variable": [
		{
			"key": "baseUrl",
			"value": "https://jsonplaceholder.typicode.com"
		}
	]
}